{"photos":{"page":1,"pages":16092,"perpage":20,"total":"321826","photo":[{"id":"27859587356","owner":"12208635@N07","secret":"cda0e32c08","server":"222","farm":0,"title":"Oriland Kittens","ispublic":1,"isfriend":0,"isfamily":0},{"id":"27894425385","owner":"140647795@N06","secret":"4004632a08","server":"7507","farm":8,"title":"\u0644\u0644\u0628\u064a\u0639 \u0642\u0637\u0647 \u0634\u064a\u0631\u0627\u0632\u064a\u0647 \u0645\u0648\u0646 \u0641\u064a\u0633 \u0644\u0648\u0646 \u0627\u0628\u064a\u0636 \u0643\u0627\u0645\u0644 \u0639\u064a\u0648\u0646 \u0632\u0631\u0642 \u0627\u0644\u0639\u0645\u0631 \u0634\u0647\u0631\u064a\u0646 \u0645\u062a\u0639\u0644\u0645\u0647 \u0639\u0644\u0649 \u0627\u0644\u0644\u062a\u0631\u0628\u0648\u0643\u0633 \u0627\u0644\u062c\u0646\u0633 \u0627\u0646\u062b\u0649 \u0648\u0641\u064a \u0630\u0643\u0631 \u0628\u0639\u062f \u0644\u062a\u0648\u0627\u0635\u0644 \u0648\u0627\u062a\u0633 \u0622\u0628 0566356070  ____________________________ \u200f\u200e\u269c\u0645\u0641\u0627\u062a\u064a\u062d \u0627\u0644\u0627\u0645\u0627\u0631\u0627\u062a \u0644\u0644\u0627\u0639\u0644\u0627\u0646\u0627\u062a \u0627\u0644\u0645\u062c\u0627\u0646\u064a\u0629\u269c \u200f\u200e\u0645\u0631\u062e\u0635 \u0645\u0646 \u062f\u0627\u0626\u0631\u0629 \u0627\u0644\u062a\u0646\u0645\u064a\u0629 \u0627\u0644\u0625\u0642\u062a\u0635\u0627\u062f\u064a\u0629 \u200f\u200e#\u0645\u0641\u0627\u062a\u064a\u062d_\u0627\u0644\u0627\u0645\u0627\u0631\u0627\u062a \u200f","ispublic":1,"isfriend":0,"isfamily":0},{"id":"27616075370","owner":"88282437@N08","secret":"950db85192","server":"7364","farm":8,"title":"sort of smiley","ispublic":1,"isfriend":0,"isfamily":0},{"id":"27282047084","owner":"41569704@N00","secret":"efea025f6c","server":"7269","farm":2,"title":"Alice on my bed","ispublic":1,"isfriend":0,"isfamily":0},{"id":"27817538421","owner":"41569704@N00","secret":"077c5040fa","server":"7360","farm":8,"title":"Ellen on her favorite hammock","ispublic":1,"isfriend":0,"isfamily":0},{"id":"27859342446","owner":"137301553@N06","secret":"0825876eca","server":"7198","farm":8,"title":"DSC_0661_1204","ispublic":1,"isfriend":0,"isfamily":0},{"id":"27817367651","owner":"27202212@N05","secret":"4ef04a434e","server":"7298","farm":8,"title":"","ispublic":1,"isfriend":0,"isfamily":0},{"id":"27281812054","owner":"27202212@N05","secret":"9cf5700a0e","server":"7199","farm":8,"title":"","ispublic":1,"isfriend":0,"isfamily":0},{"id":"27281763853","owner":"127701863@N04","secret":"0391614c0a","server":"7587","farm":8,"title":"Dordoll","ispublic":1,"isfriend":0,"isfamily":0},{"id":"27792922112","owner":"131166639@N04","secret":"14f0e41bf5","server":"7307","farm":8,"title":"Mau","ispublic":1,"isfriend":0,"isfamily":0},{"id":"27615716040","owner":"54348069@N00","secret":"7837fed78a","server":"7278","farm":8,"title":"Where am I? Where did I fall asleep last night? #\ud83d\ude3a\u2600\u2601\u26a1 #\ud83d\ude3b #\ud83d\ude3a #cloudythecat #sunshinethecat #teamcatmojo #thunderthecat #cat #cats #thedailykitten #catstagram #catsofinstagram #cutecatsoninstagram #cute #kitten #kitt","ispublic":1,"isfriend":0,"isfamily":0},{"id":"27893640985","owner":"66920699@N03","secret":"fb044b945c","server":"7195","farm":8,"title":"\u304a\u65e5\u69d8\u306e\u305e\u304f\u3068\u3059\u3084\u3059\u3084\u5bdd\u9854","ispublic":1,"isfriend":0,"isfamily":0},{"id":"27281472443","owner":"141803797@N03","secret":"67b0c10094","server":"7424","farm":8,"title":"Another famous saying is \"it's not what you know it's who you know that matters\". \ud83d\udc40Is there any evidence to suggest this is true? \u26a1\ufe0f Studies have discovered they can be predicted how much you earn just by looking at your four closest friends, I s","ispublic":1,"isfriend":0,"isfamily":0},{"id":"27816920841","owner":"7239376@N05","secret":"d5f92d7d12","server":"7383","farm":8,"title":"\"Two Is Better Than One\" #BB8 #cat #kitty #kitten #PhnomPenh #Cambodia","ispublic":1,"isfriend":0,"isfamily":0},{"id":"27816901591","owner":"53186727@N00","secret":"a4acc509c8","server":"7434","farm":8,"title":"Srlup!","ispublic":1,"isfriend":0,"isfamily":0},{"id":"27816737531","owner":"134772380@N02","secret":"83d6496af1","server":"7307","farm":8,"title":"DSC05861","ispublic":1,"isfriend":0,"isfamily":0},{"id":"27615278630","owner":"134772380@N02","secret":"e1f8f3967f","server":"7398","farm":8,"title":"DSC05862","ispublic":1,"isfriend":0,"isfamily":0},{"id":"27893448555","owner":"58750328@N07","secret":"eab1449f65","server":"7316","farm":8,"title":"Odd-eyed cat","ispublic":1,"isfriend":0,"isfamily":0},{"id":"27281196344","owner":"48600090482@N01","secret":"0743922880","server":"7295","farm":8,"title":"Zelda; Warrior Princess","ispublic":1,"isfriend":0,"isfamily":0},{"id":"27893351465","owner":"110764859@N08","secret":"b3ec9a1aa6","server":"7443","farm":8,"title":"","ispublic":1,"isfriend":0,"isfamily":0}]},"stat":"ok"}