{
    "photos":{
        "page":1,
        "pages":13928,
        "perpage":20,
        "total":"278556",
        "photo":[
                 {
                 "id":"27825936851",
                 "owner":"8854930@N07",
                 "secret":"282dcdc3bf",
                 "server":"7278",
                 "farm":8,
                 "title":"Nom nom nom!  #cat #catsofinstagram #catsagram #catsofig #kitten #kittensofinstagram #vigothecat #vigothecatpathian",
                 "ispublic":1,
                 "isfriend":0,
                 "isfamily":0
                 },
                 {
                 "id":"27902610105",
                 "owner":"56419348@N00",
                 "secret":"dafbf02da2",
                 "server":"7393",
                 "farm":8,
                 "title":"IMG_4547",
                 "ispublic":1,
                 "isfriend":0,
                 "isfamily":0
                 },
                 {
                 "id":"27867539226",
                 "owner":"135340688@N07",
                 "secret":"2149d3358d",
                 "server":"7604",
                 "farm":8,
                 "title":"ginge",
                 "ispublic":1,
                 "isfriend":0,
                 "isfamily":0
                 },
                 {
                 "id":"27624069200",
                 "owner":"32239509@N00",
                 "secret":"295fdfec81",
                 "server":"7191",
                 "farm":8,
                 "title":"IMG_20160625_130954",
                 "ispublic":1,
                 "isfriend":0,
                 "isfamily":0
                 },
                 {
                 "id":"27867503236",
                 "owner":"47328203@N08",
                 "secret":"f61c72c1f7",
                 "server":"7178",
                 "farm":8,
                 "title":"The many sides of Nibbler \u2764 #HTers #HashTags #adorable #animal #animals #cat #catlover #catoftheday #cats #catsagram #catstagram #furry #ilovemycat #instacat #instagood #instagramcats #kitten #kittens #kitty #lovecats #lovekittens #nature #pet #pets",
                 "ispublic":1,
                 "isfriend":0,
                 "isfamily":0
                 },
                 {
                 "id":"27902422215",
                 "owner":"67279640@N08",
                 "secret":"dbd9725a94",
                 "server":"7691",
                 "farm":8,
                 "title":"DSCF8301",
                 "ispublic":1,
                 "isfriend":0,
                 "isfamily":0
                 },
                 {
                 "id":"27289977994",
                 "owner":"56419348@N00",
                 "secret":"842f16e407",
                 "server":"7403",
                 "farm":8,
                 "title":"IMG_4537",
                 "ispublic":1,
                 "isfriend":0,
                 "isfamily":0
                 },
                 {
                 "id":"27289681323",
                 "owner":"133123788@N03",
                 "secret":"5908b8a63d",
                 "server":"7323",
                 "farm":8,
                 "title":"_DSC0091",
                 "ispublic":1,
                 "isfriend":0,
                 "isfamily":0
                 },
                 {
                 "id":"27902470755",
                 "owner":"133504783@N03",
                 "secret":"ca06ab46a8",
                 "server":"7492",
                 "farm":8,
                 "title":"IMG_9515",
                 "ispublic":1,
                 "isfriend":0,
                 "isfamily":0
                 },
                 {
                 "id":"27289636723",
                 "owner":"133504783@N03",
                 "secret":"91a7bb276a",
                 "server":"7348",
                 "farm":8,
                 "title":"IMG_9517",
                 "ispublic":1,
                 "isfriend":0,
                 "isfamily":0
                 },
                 {
                 "id":"27902465645",
                 "owner":"7599121@N08",
                 "secret":"0806e850fb",
                 "server":"7355",
                 "farm":8,
                 "title":"Rawr #calico #kitten #yawn #calicokitten #calicocrew #kittensofinstagram #instakittens #sleepy #afghan #rawr",
                 "ispublic":1,
                 "isfriend":0,
                 "isfamily":0
                 },
                 {
                 "id":"27289631503",
                 "owner":"133504783@N03",
                 "secret":"af12623e07",
                 "server":"7567",
                 "farm":8,
                 "title":"IMG_9519",
                 "ispublic":1,
                 "isfriend":0,
                 "isfamily":0
                 },
                 {
                 "id":"27867352176",
                 "owner":"56419348@N00",
                 "secret":"de232321c8",
                 "server":"7346",
                 "farm":8,
                 "title":"IMG_4508",
                 "ispublic":1,
                 "isfriend":0,
                 "isfamily":0
                 },
                 {
                 "id":"27825729551",
                 "owner":"56419348@N00",
                 "secret":"d556e70e0d",
                 "server":"7297",
                 "farm":8,
                 "title":"IMG_4507",
                 "ispublic":1,
                 "isfriend":0,
                 "isfamily":0
                 },
                 {
                 "id":"27902434545",
                 "owner":"133504783@N03",
                 "secret":"006d1b1345",
                 "server":"7518",
                 "farm":8,
                 "title":"IMG_9501",
                 "ispublic":1,
                 "isfriend":0,
                 "isfamily":0
                 },
                 {
                 "id":"27825720141",
                 "owner":"133504783@N03",
                 "secret":"282d3703dc",
                 "server":"7118",
                 "farm":8,
                 "title":"IMG_9465",
                 "ispublic":1,
                 "isfriend":0,
                 "isfamily":0
                 },
                 {
                 "id":"27902430715",
                 "owner":"133504783@N03",
                 "secret":"6723437b87",
                 "server":"7330",
                 "farm":8,
                 "title":"IMG_9486",
                 "ispublic":1,
                 "isfriend":0,
                 "isfamily":0
                 },
                 {  
                 "id":"27825706701",
                 "owner":"133504783@N03",
                 "secret":"9fc47aa76a",
                 "server":"7284",
                 "farm":8,
                 "title":"IMG_9488",
                 "ispublic":1,
                 "isfriend":0,
                 "isfamily":0
                 },
                 {  
                 "id":"27867339276",
                 "owner":"133504783@N03",
                 "secret":"aacf4f24f6",
                 "server":"7280",
                 "farm":8,
                 "title":"IMG_9490",
                 "ispublic":1,
                 "isfriend":0,
                 "isfamily":0
                 },
                 {  
                 "id":"27867325366",
                 "owner":"133504783@N03",
                 "secret":"ac5ec7746b",
                 "server":"7396",
                 "farm":8,
                 "title":"IMG_9497",
                 "ispublic":1,
                 "isfriend":0,
                 "isfamily":0
                 }
                 ]
    },
    "stat":"ok"
}